<svg id="blogIcons" xmlns="http://www.w3.org/2000/svg" version="1.1">
  <symbol id="clock-icon" viewBox="0 0 64 64">
    <g class="svg-icon">
      <path d="M32,0C14.3,0,0,14.3,0,32s14.3,32,32,32s32-14.3,32-32S49.7,0,32,0z M32,59.8C16.7,59.8,4.2,47.3,4.2,32S16.7,4.2,32,4.2 S59.8,16.7,59.8,32S47.3,59.8,32,59.8z"/>
      <path d="M31.2,37.5L31.2,37.5c-1.1,0-2-0.9-2-2V11.4c0-1.1,0.9-2,2-2h0c1.1,0,2,0.9,2,2v24.1C33.1,36.6,32.2,37.5,31.2,37.5z"/>
      <path d="M45.6,44.7L45.6,44.7c-0.6,0.9-1.8,1.2-2.7,0.6l-12.8-8.1c-0.9-0.6-1.2-1.8-0.6-2.7l0,0c0.6-0.9,1.8-1.2,2.7-0.6L45,42
        C45.9,42.6,46.2,43.8,45.6,44.7z"/>
    </g>
  </symbol>

  <symbol id="user-icon" viewBox="0 0 64 64">
    <g class="svg-icon">
      <path d="M31.9,4.1c6.8,0,13.9,5.7,13.9,9.9V24c0,3.8-1.6,11.1-5.9,14.5c-1.1,0.9-1.7,2.2-1.5,3.6c0.2,1.4,1,2.6,2.3,3.2l17.3,8.2
      c0.1,0.1,1.7,0.3,1.7,2.5v3.9H4.1v-4c0-1.6,1.2-2.1,1.7-2.3l17.5-8.2c1.2-0.6,2.1-1.8,2.3-3.1c0.2-1.4-0.4-2.7-1.5-3.6
      C19.9,35.2,18,27.9,18,24V14C18,9.9,25.2,4.1,31.9,4.1 M31.9,0.1C23.1,0.1,14,7.5,14,14V24c0,4.3,2,13.1,7.6,17.6L4.1,49.8
      c0,0-4,1.8-4,4v6c0,2.2,1.8,4,4,4h55.7c2.2,0,4-1.8,4-4v-6c0-2.3-4-4-4-4l-17.3-8.2c5.5-4.3,7.4-12.9,7.4-17.6V14
      C49.8,7.5,40.7,0.1,31.9,0.1L31.9,0.1z"/>
    </g>
  </symbol>

  <symbol id="comment-icon" viewBox="0 0 64 64">
    <g class="svg-icon">
      <path d="M32,63.9l-9.8-17H9.9c-5,0-9.1-3.7-9.1-8.3V8.4c0-4.6,4.1-8.3,9.1-8.3h44.1c5,0,9.1,3.7,9.1,8.3v30.2
  		c0,4.6-4.1,8.3-9.1,8.3H41.8L32,63.9z M9.9,4.7c-2.5,0-4.6,1.7-4.6,3.7v30.2c0,2,2,3.7,4.6,3.7h14.9L32,54.7l7.2-12.4h14.9
  		c2.5,0,4.5-1.7,4.5-3.7V8.4c0-2-2-3.7-4.5-3.7C54.1,4.7,9.9,4.7,9.9,4.7z"/>
    </g>
  </symbol>

  <symbol id="search-icon">
    <g class="svg-icon">
      <path d="M63.4,60.5L44,41c3.6-4.3,5.8-9.9,5.8-16c0-13.8-11.1-24.9-24.9-24.9C11.2,0.2,0,11.3,0,25.1S11.2,50,24.9,50
  			c6.2,0,11.9-2.3,16.3-6.1l19.3,19.4c0.8,0.8,2,0.8,2.8,0C64.2,62.5,64.2,61.2,63.4,60.5z M24.9,46C13.4,46,4,36.6,4,25.1
  			C4,13.5,13.4,4.1,24.9,4.1c11.6,0,20.9,9.4,20.9,20.9S36.5,46,24.9,46z"/>
    </g>
  </symbol>
</svg>